{"dir":"appOrg",
"modulo":"vehiculo",
"path":"../../../../",
"arr":[
    {"dir":"appOrg"  , "typ":"css" , "arc":"table"    },
    {"dir":"FDSoil"  , "typ":"js"  , "arc":"pickList" },
    {"dir":"FDSoil"  , "typ":"js"  , "arc":"ajax" },
    {"dir":"FDSoil"  , "typ":"js"  , "arc":"numero" },
    {"dir":"FDSoil"  , "typ":"js"  , "arc":"effect" },
    {"dir":"FDSoil"  , "typ":"js"  , "arc":"tabla" },
    {"dir":"pickList", "typ":"css" , "arc":"pickList" },
    {"dir":"pickList", "typ":"js"  , "arc":"pickList" },
    {"dir":"pickList", "typ":"js"  , "arc":"tabla" },
    {"dir":"pickList", "typ":"js"  , "arc":"reqs" }
]}










